C:\sdn\src\test\java\cl\cencosud\pages\ResultgooglePage.java
C:\sdn\src\test\java\cl\cencosud\models\BusquedaGoogle.java
C:\sdn\src\test\java\cl\cencosud\dataproviders\DataProviders.java
C:\sdn\src\test\java\cl\cencosud\tests\Sdn.java
C:\sdn\src\test\java\cl\cencosud\configuration\DriverFactory.java
C:\sdn\src\test\java\cl\cencosud\pages\GooglePage.java
